An introduction to the EJSCREENbatch tool • EJSCREENbatch
…
The second new data object is EJ.attainsdata.raw. This object holds a subset of raw data from the the ATTAINs API’s “firehose”. This raw data is queried based on the catchment IDs that fall within buffered areas; a motivated user could do an ad-hoc, deeper dive into the ATTAINs impairment data based on several ID variables included in this dataframe.

my.EJ.data.water$EJ.attainsdata.raw[[1]] %>%
  as_tibble()
#> # A tibble: 399 x 35
#>      .id OBJECTID submissionid     nhdplusid state region organizationid orgtype
#>    <int>    <int> <chr>                <int> <chr> <chr>  <chr>          <chr>  
#>  1     1    54873 {be3cc2b1-a7cf-~    952637 CO    08     21COL001       State  
#>  2     1    54874 {be3cc2b1-a7cf-~    952641 CO    08     21COL001       State  
#>  3     1    54877 {be3cc2b1-a7cf-~    949569 CO    08     21COL001       State  
#>  4     1    54879 {be3cc2b1-a7cf-~    949573 CO    08     21COL001       State  
#>  5     1    55007 {be3cc2b1-a7cf-~    951863 CO    08     21COL001       State  
#>  6     1    55008 {be3cc2b1-a7cf-~    951869 CO    08     21COL001       State  
#>  7     1    55050 {be3cc2b1-a7cf-~    951697 CO    08     21COL001       State  
#>  8     1    55051 {be3cc2b1-a7cf-~    951725 CO    08     21COL001       State  
#>  9     1    55109 {be3cc2b1-a7cf-~    951785 CO    08     21COL001       State  
#> 10     1    55110 {be3cc2b1-a7cf-~    951821 CO    08     21COL001       State  
#> # ... with 389 more rows, and 27 more variables: tas303d <chr>,
#> #   organizationname <chr>, reportingcycle <int>,
#> #   assessmentunitidentifier <chr>, assessmentunitname <chr>,
#> #   waterbodyreportlink <chr>, assmnt_joinkey <chr>, permid_joinkey <lgl>,
#> #   ircategory <chr>, overallstatus <chr>, isassessed <chr>, isimpaired <chr>,
#> #   isthreatened <chr>, on303dlist <chr>, hastmdl <chr>, has4bplan <chr>,
#> #   hasalternativeplan <chr>, hasprotectionplan <chr>,
#> #   visionpriority303d <chr>, areasqkm <dbl>, huc12 <chr>,
#> #   catchmentareasqkm <dbl>, catchmentstatecode <chr>, GLOBALID <chr>,
…
